{
  "project_info": {
    "project_number": "94872256070",
    "firebase_url": "https://dark-balancer-183121.firebaseio.com",
    "project_id": "dark-balancer-183121",
    "storage_bucket": "dark-balancer-183121.appspot.com"
  },
  "client": [
    {
      "client_info": {
        "mobilesdk_app_id": "1:94872256070:android:daecb41fc1411ffb",
        "android_client_info": {
          "package_name": "li.doerf.woist"
        }
      },
      "oauth_client": [
        {
          "client_id": "94872256070-35uktsk2kbp8iiiokta5nmvqjcmm3fbv.apps.googleusercontent.com",
          "client_type": 3
        }
      ],
      "api_key": [
        {
          "current_key": "AIzaSyDGtSqKVjAv1xT1Vak7wntF2RkyxUPoWVw"
        }
      ],
      "services": {
        "appinvite_service": {
          "other_platform_oauth_client": [
            {
              "client_id": "94872256070-35uktsk2kbp8iiiokta5nmvqjcmm3fbv.apps.googleusercontent.com",
              "client_type": 3
            }
          ]
        }
      }
    }
  ],
  "configuration_version": "1"
}