Zürich,ZH,47.373,8.541,"https://www.google.com/maps/search/?api=1&query=47.373,8.541"
Genève,GE,46.210,6.144,"https://www.google.com/maps/search/?api=1&query=46.210,6.144"
Basel,BS,47.556,7.589,"https://www.google.com/maps/search/?api=1&query=47.556,7.589"
Lausanne,VD,46.520,6.630,"https://www.google.com/maps/search/?api=1&query=46.520,6.630"
Bern,BE,46.947,7.448,"https://www.google.com/maps/search/?api=1&query=46.947,7.448"
Winterthur,ZH,47.498, 8.728,"https://www.google.com/maps/search/?api=1&query=47.498,8.728"
Luzern,LU,47.050,8.300,"https://www.google.com/maps/search/?api=1&query=47.050,8.300"
St. Gallen,SG,47.424,9.370,"https://www.google.com/maps/search/?api=1&query=47.424,9.370"
Lugano,TI,46.005,8.947,"https://www.google.com/maps/search/?api=1&query=46.005,8.947"
Biel/Bienne,BE,47.142,7.246,"https://www.google.com/maps/search/?api=1&query=47.142,7.246"
Thun,BE,46.756,7.624,"https://www.google.com/maps/search/?api=1&query=46.756,7.624"
Köniz,BE,46.921,7.413,"https://www.google.com/maps/search/?api=1&query=46.921,7.413"
La Chaux-de-Fonds,NE,47.104,6.833,"https://www.google.com/maps/search/?api=1&query=47.104,6.833"
Fribourg,FR,46.806,7.163,"https://www.google.com/maps/search/?api=1&query=46.806,7.163"
Schaffhausen,SH,47.700,8.633,"https://www.google.com/maps/search/?api=1&query=47.7,8.633"
Vernier,GE,46.212,6.111,"https://www.google.com/maps/search/?api=1&query=46.212,6.111"
Chur,GR,46.848,9.533,"https://www.google.com/maps/search/?api=1&query=46.848,9.533"
Uster,ZH,47.346,8.717,"https://www.google.com/maps/search/?api=1&query=47.346,8.717"
Neuchâtel,NE,46.992,6.926,"https://www.google.com/maps/search/?api=1&query=46.992,6.926"
Sion,VS,46.234,7.359,"https://www.google.com/maps/search/?api=1&query=46.234,7.359"
Lancy,GE,46.189,6.117,"https://www.google.com/maps/search/?api=1&query=46.189,6.117"
Emmen,LU,47.077,8.274,"https://www.google.com/maps/search/?api=1&query=47.077,8.274"
Yverdon-les-Bains,VD,46.779,6.640,"https://www.google.com/maps/search/?api=1&query=46.779,6.640"
Zug,ZG,47.165,8.516,"https://www.google.com/maps/search/?api=1&query=47.165,8.516"
Kriens,LU,47.033,8.279,"https://www.google.com/maps/search/?api=1&query=47.033,8.279"
Rapperswil-Jona,SG,47.225,8.818,"https://www.google.com/maps/search/?api=1&query=47.225,8.818"
Dübendorf,ZH,47.395,8.618,"https://www.google.com/maps/search/?api=1&query=47.395,8.618"
Dietikon,ZH,47.405,8.404,"https://www.google.com/maps/search/?api=1&query=47.405,8.404"
Montreux,VD,46.431,6.913,"https://www.google.com/maps/search/?api=1&query=46.431,6.913"
Frauenfeld,TG,47.556,8.898,"https://www.google.com/maps/search/?api=1&query=47.556,8.898"
Wetzikon (ZH),ZH,47.322,8.806,"https://www.google.com/maps/search/?api=1&query=47.322,8.806"
Wil (SG),SG,47.466,9.049,"https://www.google.com/maps/search/?api=1&query=47.466,9.049"
Baar,ZG,47.193,8.523,"https://www.google.com/maps/search/?api=1&query=47.193,8.523"
Meyrin,GE,46.228,6.071,"https://www.google.com/maps/search/?api=1&query=46.228,6.071"
Bulle,FR,46.620,7.058,"https://www.google.com/maps/search/?api=1&query=46.620,7.058"
Wädenswil,ZH,47.228,8.672,"https://www.google.com/maps/search/?api=1&query=47.228,8.672"
Kreuzlingen,TG,47.645,9.173,"https://www.google.com/maps/search/?api=1&query=47.645,9.173"
Carouge (GE),GE,46.185,6.140,"https://www.google.com/maps/search/?api=1&query=46.185,6.140"
Riehen,BS,47.585,7.649,"https://www.google.com/maps/search/?api=1&query=47.585,7.649"
Aarau,AG,47.389,8.049,"https://www.google.com/maps/search/?api=1&query=47.389,8.049"
Renens (VD),VD,46.537,6.591,"https://www.google.com/maps/search/?api=1&query=46.537,6.591"
Allschwil,BL,47.551,7.536,"https://www.google.com/maps/search/?api=1&query=47.551,7.536"
Wettingen,AG,47.468,8.330,"https://www.google.com/maps/search/?api=1&query=47.468,8.330"
Horgen,ZH,47.260,8.597,"https://www.google.com/maps/search/?api=1&query=47.260,8.597"
Nyon,VD,46.381,6.238,"https://www.google.com/maps/search/?api=1&query=46.381,6.238"
Vevey,VD,46.459,6.848,"https://www.google.com/maps/search/?api=1&query=46.459,6.848"
Bülach,ZH,47.517,8.541,"https://www.google.com/maps/search/?api=1&query=47.517,8.541"
Baden,AG,47.473,8.309,"https://www.google.com/maps/search/?api=1&query=47.473,8.309"
Reinach (BL),BL,47.493,7.590,"https://www.google.com/maps/search/?api=1&query=47.493,7.590"
Onex,GE,46.182,6.101,"https://www.google.com/maps/search/?api=1&query=46.182,6.101"
Opfikon,ZH,47.434,8.566,"https://www.google.com/maps/search/?api=1&query=47.434,8.566"
Adliswil,ZH,47.313,8.522,"https://www.google.com/maps/search/?api=1&query=47.313,8.522"
Volketswil,ZH,47.389,8.691,"https://www.google.com/maps/search/?api=1&query=47.389,8.691"
Schlieren,ZH,47.397,8.446,"https://www.google.com/maps/search/?api=1&query=47.397,8.446"
Kloten,ZH,47.453,8.584,"https://www.google.com/maps/search/?api=1&query=47.453,8.584"
Bellinzona,TI,46.197,9.036,"https://www.google.com/maps/search/?api=1&query=46.197,9.036"
Regensdorf,ZH,47.431,8.466,"https://www.google.com/maps/search/?api=1&query=47.431,8.466"
Gossau (SG),SG,47.415,9.250,"https://www.google.com/maps/search/?api=1&query=47.415,9.250"
Olten,SO,47.351,7.899,"https://www.google.com/maps/search/?api=1&query=47.351,7.899"
Pully,VD,46.509,6.662,"https://www.google.com/maps/search/?api=1&query=46.509,6.662"
Glarus Nord,GL,47.101,9.057,"https://www.google.com/maps/search/?api=1&query=47.101,9.057"
Thalwil,ZH,47.290,8.569,"https://www.google.com/maps/search/?api=1&query=47.290,8.569"
Martigny,VS,46.101,7.074,"https://www.google.com/maps/search/?api=1&query=46.101,7.074"
Muttenz,BL,47.521,7.654,"https://www.google.com/maps/search/?api=1&query=47.521,7.654"
Monthey,VS,46.253,6.947,"https://www.google.com/maps/search/?api=1&query=46.253,6.947"
Ostermundigen,BE,46.958,7.498,"https://www.google.com/maps/search/?api=1&query=46.958,7.498"
Grenchen,SO,47.189,7.407,"https://www.google.com/maps/search/?api=1&query=47.189,7.407"
Illnau-Effretikon,ZH,47.428,8.689,"https://www.google.com/maps/search/?api=1&query=47.428,8.689"
Solothurn,SO,47.208,7.540,"https://www.google.com/maps/search/?api=1&query=47.208,7.540"
Sierre,VS,46.294,7.536,"https://www.google.com/maps/search/?api=1&query=46.294,7.536"
Val-de-Ruz,NE,47.083,6.966,"https://www.google.com/maps/search/?api=1&query=47.083,6.966"
Burgdorf,BE,47.057,7.625,"https://www.google.com/maps/search/?api=1&query=47.057,7.625"
Freienbach,SZ,47.205,8.761,"https://www.google.com/maps/search/?api=1&query=47.205,8.761"
Locarno,TI,46.163,8.794,"https://www.google.com/maps/search/?api=1&query=46.163,8.794"
Cham,ZG,47.179,8.460,"https://www.google.com/maps/search/?api=1&query=47.179,8.460"
Pratteln,BL,47.516,7.688,"https://www.google.com/maps/search/?api=1&query=47.516,7.688"
Herisau,AR,47.387,9.270,"https://www.google.com/maps/search/?api=1&query=47.387,9.270"
Steffisburg,BE,46.783,7.638,"https://www.google.com/maps/search/?api=1&query=46.783,7.638"
Morges,VD,46.511,6.500,"https://www.google.com/maps/search/?api=1&query=46.511,6.500"
Wallisellen,ZH,47.413,8.592,"https://www.google.com/maps/search/?api=1&query=47.413,8.592"
Wohlen (AG),AG,47.351,8.278,"https://www.google.com/maps/search/?api=1&query=47.351,8.278"
Langenthal,BE,47.212,7.792,"https://www.google.com/maps/search/?api=1&query=47.212,7.792"
Binningen,BL,47.539,7.578,"https://www.google.com/maps/search/?api=1&query=47.539,7.578"
Einsiedeln,SZ,47.128,8.750,"https://www.google.com/maps/search/?api=1&query=47.128,8.750"
Mendrisio,TI,45.871,8.989,"https://www.google.com/maps/search/?api=1&query=45.871,8.989"
Schwyz,SZ,47.021,8.654,"https://www.google.com/maps/search/?api=1&query=47.021,8.654"
Lyss,BE,47.071,7.308,"https://www.google.com/maps/search/?api=1&query=47.071,7.308"
Arbon,TG,47.515,9.437,"https://www.google.com/maps/search/?api=1&query=47.515,9.437"
Stäfa,ZH,47.239,8.731,"https://www.google.com/maps/search/?api=1&query=47.239,8.731"
Liestal,BL,47.485,7.721,"https://www.google.com/maps/search/?api=1&query=47.485,7.721"
Thônex,GE,46.188,6.199,"https://www.google.com/maps/search/?api=1&query=46.188,6.199"
Küsnacht (ZH),ZH,47.317,8.584,"https://www.google.com/maps/search/?api=1&query=47.317,8.584"
Horw,LU,47.019,8.313,"https://www.google.com/maps/search/?api=1&query=47.019,8.313"
Meilen,ZH,47.268,8.640,"https://www.google.com/maps/search/?api=1&query=47.268,8.640"
Versoix,GE,46.282,6.165,"https://www.google.com/maps/search/?api=1&query=46.282,6.165"
Oftringen,AG,47.310,7.930,"https://www.google.com/maps/search/?api=1&query=47.310,7.930"
Richterswil,ZH,47.208,8.701,"https://www.google.com/maps/search/?api=1&query=47.208,8.701"
Amriswil,TG,47.545,9.297,"https://www.google.com/maps/search/?api=1&query=47.545,9.297"
Ebikon,LU,47.082,8.340,"https://www.google.com/maps/search/?api=1&query=47.082,8.340"
Rheinfelden,AG,47.554,7.793,"https://www.google.com/maps/search/?api=1&query=47.554,7.793"
